…
``` r
# access the data using the default mean values
agg_cong <- get_aggregate_cong_data()

# choose specific methods by subgroup
get_aggregate_cong_data(census_nonperc_vars = "Mean"
                        ,census_perc_vars = "Sum"
                        ,bill_vars = "First"
                        ,com_vars = "Mean"
                        ,else_vars = "Sum")
#> # A tibble: 37,692 × 204
#>    state        st    firstname lastname bioguide  year start      end       
#>    <chr>        <chr> <chr>     <chr>    <chr>    <dbl> <date>     <date>    
#>  1 North Dakota ND    Fred      Aandahl  A000001  1952. 1951-01-03 1953-01-03
#>  2 Virginia     VA    Watkins   Abbitt   A000002  1948. 1947-01-03 1949-01-03
#>  3 Virginia     VA    Watkins   Abbitt   A000002  1950. 1949-01-03 1951-01-03
#>  4 Virginia     VA    Watkins   Abbitt   A000002  1952. 1951-01-03 1953-01-03
#>  5 Virginia     VA    Watkins   Abbitt   A000002  1954. 1953-01-03 1955-01-03
#>  6 Virginia     VA    Watkins   Abbitt   A000002  1956. 1955-01-05 1957-01-03
#>  7 Virginia     VA    Watkins   Abbitt   A000002  1958. 1957-01-03 1959-01-03
#>  8 Virginia     VA    Watkins   Abbitt   A000002  1960. 1959-01-07 1961-01-03
#>  9 Virginia     VA    Watkins   Abbitt   A000002  1962. 1961-01-03 1963-01-03
#> 10 Virginia     VA    Watkins   Abbitt   A000002  1964. 1963-01-09 1965-01-03
#> # … with 37,682 more rows, and 196 more variables: district_number <dbl>,
#> #   congress_number <dbl>, govtrack <dbl>, wikipedia <chr>, wikidata <chr>,
#> #   google_entity_id <chr>, house_history <dbl>, icpsr <dbl>,
#> #   com_agriculture_102_mean <dbl>, com_appropriations_104_mean <dbl>,
#> #   com_mil_natsec_106_mean <dbl>, com_finserv_113_mean <dbl>,
#> #   com_budget_115_mean <dbl>, com_edu_work_124_mean <dbl>,
#> #   com_energy_commerce_128_mean <dbl>, com_intl_rel_134_mean <dbl>, …

# default aggs for specifc states/sessions and vars related to tax
get_aggregate_cong_data(states = c("Kentucky","Michigan","Pennsylvania")
                        ,related_to = "tax"
                        ,sessions = c(50,51)
                        )
#> # A tibble: 104 × 18
#>    state        st    firstname lastname bioguide  year start      end       
#>    <chr>        <chr> <chr>     <chr>    <chr>    <dbl> <date>     <date>    
#>  1 Michigan     MI    Edward    Allen    A000119  1888. 1887-12-05 1889-03-03
#>  2 Michigan     MI    Edward    Allen    A000119  1890. 1889-12-02 1891-03-03
#>  3 Pennsylvania PA    Louis     Atkinson A000331  1888. 1887-12-05 1889-03-03
#>  4 Pennsylvania PA    Louis     Atkinson A000331  1890. 1889-12-02 1891-03-03
#>  5 Pennsylvania PA    Thomas    Bayne    B000261  1888. 1887-12-05 1889-03-03
#>  6 Pennsylvania PA    Thomas    Bayne    B000261  1890. 1889-12-02 1891-03-03
#>  7 Michigan     MI    Charles   Belknap  B000328  1890. 1889-12-02 1891-03-03
#>  8 Pennsylvania PA    Henry     Bingham  B000469  1888. 1887-12-05 1889-03-03
#>  9 Pennsylvania PA    Henry     Bingham  B000469  1890. 1889-12-02 1891-03-03
#> 10 Michigan     MI    Aaron     Bliss    B000557  1890. 1889-12-02 1891-03-03
#> # … with 94 more rows, and 10 more variables: district_number <dbl>,
#> #   congress_number <dbl>, govtrack <dbl>, wikipedia <chr>, wikidata <chr>,
#> #   google_entity_id <chr>, house_history <dbl>, icpsr <dbl>,
#> #   com_taxation_503_mean <dbl>, percent_taxi_mean <dbl>
```
…
